…
### 4.1.2 nycflights13

To explore the basic dplyr verbs, we're going to use `nycflights13::flights`.
This dataset contains all 336,776 flights that departed from New York City in 2013.
The data comes from the US [Bureau of Transportation Statistics](http://www.transtats.bts.gov/DatabaseInfo.asp?DB_ID=120&Link=0), and is documented in `?flights`.


```r
flights
```

```
## # A tibble: 336,776 × 19
##     year month   day dep_time sched_de…¹ dep_d…² arr_t…³ sched…⁴ arr_d…⁵ carrier
##    <int> <int> <int>    <int>      <int>   <dbl>   <int>   <int>   <dbl> <chr>  
##  1  2013     1     1      517        515       2     830     819      11 UA     
##  2  2013     1     1      533        529       4     850     830      20 UA     
##  3  2013     1     1      542        540       2     923     850      33 AA     
##  4  2013     1     1      544        545      -1    1004    1022     -18 B6     
##  5  2013     1     1      554        600      -6     812     837     -25 DL     
##  6  2013     1     1      554        558      -4     740     728      12 UA     
##  7  2013     1     1      555        600      -5     913     854      19 B6     
##  8  2013     1     1      557        600      -3     709     723     -14 EV     
##  9  2013     1     1      557        600      -3     838     846      -8 B6     
## 10  2013     1     1      558        600      -2     753     745       8 AA     
## # … with 336,766 more rows, 9 more variables: flight <int>, tailnum <chr>,
## #   origin <chr>, dest <chr>, air_time <dbl>, distance <dbl>, hour <dbl>,
## #   minute <dbl>, time_hour <dttm>, and abbreviated variable names
## #   ¹​sched_dep_time, ²​dep_delay, ³​arr_time, ⁴​sched_arr_time, ⁵​arr_delay
```
…
`filter()` allows you to keep rows based on the values of the columns[^data-transform-1].
The first argument is the data frame.
The second and subsequent arguments are the conditions that must be true to keep the row.
For example, we could find all flights that arrived more than 120 minutes (two hours) late:

[^data-transform-1]: Later, you'll learn about the `slice_*()` family which allows you to choose rows based on their positions.


```r
flights |> 
  filter(dep_delay > 120)
```

```
## # A tibble: 9,723 × 19
##     year month   day dep_time sched_de…¹ dep_d…² arr_t…³ sched…⁴ arr_d…⁵ carrier
##    <int> <int> <int>    <int>      <int>   <dbl>   <int>   <int>   <dbl> <chr>  
##  1  2013     1     1      848       1835     853    1001    1950     851 MQ     
##  2  2013     1     1      957        733     144    1056     853     123 UA     
##  3  2013     1     1     1114        900     134    1447    1222     145 UA     
##  4  2013     1     1     1540       1338     122    2020    1825     115 B6     
##  5  2013     1     1     1815       1325     290    2120    1542     338 EV     
##  6  2013     1     1     1842       1422     260    1958    1535     263 EV     
##  7  2013     1     1     1856       1645     131    2212    2005     127 AA     
##  8  2013     1     1     1934       1725     129    2126    1855     151 MQ     
##  9  2013     1     1     1938       1703     155    2109    1823     166 EV     
## 10  2013     1     1     1942       1705     157    2124    1830     174 MQ     
## # … with 9,713 more rows, 9 more variables: flight <int>, tailnum <chr>,
## #   origin <chr>, dest <chr>, air_time <dbl>, distance <dbl>, hour <dbl>,
## #   minute <dbl>, time_hour <dttm>, and abbreviated variable names
## #   ¹​sched_dep_time, ²​dep_delay, ³​arr_time, ⁴​sched_arr_time, ⁵​arr_delay
```

As well as `>` (greater than), you can use `>=` (greater than or equal to), `<` (less than), `<=` (less than or equal to), `==` (equal to), and `!=` (not equal to).
You can also combine conditions with `&` or `,` to indicate "and" (check for both conditions) or with `|` to indicate "or" (check for either condition):


```r
# Flights that departed on January 1
flights |> 
  filter(month == 1 & day == 1)
```

```
## # A tibble: 842 × 19
##     year month   day dep_time sched_de…¹ dep_d…² arr_t…³ sched…⁴ arr_d…⁵ carrier
##    <int> <int> <int>    <int>      <int>   <dbl>   <int>   <int>   <dbl> <chr>  
##  1  2013     1     1      517        515       2     830     819      11 UA     
##  2  2013     1     1      533        529       4     850     830      20 UA     
##  3  2013     1     1      542        540       2     923     850      33 AA     
##  4  2013     1     1      544        545      -1    1004    1022     -18 B6     
##  5  2013     1     1      554        600      -6     812     837     -25 DL     
##  6  2013     1     1      554        558      -4     740     728      12 UA     
##  7  2013     1     1      555        600      -5     913     854      19 B6     
##  8  2013     1     1      557        600      -3     709     723     -14 EV     
##  9  2013     1     1      557        600      -3     838     846      -8 B6     
## 10  2013     1     1      558        600      -2     753     745       8 AA     
## # … with 832 more rows, 9 more variables: flight <int>, tailnum <chr>,
## #   origin <chr>, dest <chr>, air_time <dbl>, distance <dbl>, hour <dbl>,
## #   minute <dbl>, time_hour <dttm>, and abbreviated variable names
## #   ¹​sched_dep_time, ²​dep_delay, ³​arr_time, ⁴​sched_arr_time, ⁵​arr_delay
```

```r
# Flights that departed in January or February
flights |> 
  filter(month == 1 | month == 2)
```

```
## # A tibble: 51,955 × 19
##     year month   day dep_time sched_de…¹ dep_d…² arr_t…³ sched…⁴ arr_d…⁵ carrier
##    <int> <int> <int>    <int>      <int>   <dbl>   <int>   <int>   <dbl> <chr>  
##  1  2013     1     1      517        515       2     830     819      11 UA     
##  2  2013     1     1      533        529       4     850     830      20 UA     
##  3  2013     1     1      542        540       2     923     850      33 AA     
##  4  2013     1     1      544        545      -1    1004    1022     -18 B6     
##  5  2013     1     1      554        600      -6     812     837     -25 DL     
##  6  2013     1     1      554        558      -4     740     728      12 UA     
##  7  2013     1     1      555        600      -5     913     854      19 B6     
##  8  2013     1     1      557        600      -3     709     723     -14 EV     
##  9  2013     1     1      557        600      -3     838     846      -8 B6     
## 10  2013     1     1      558        600      -2     753     745       8 AA     
## # … with 51,945 more rows, 9 more variables: flight <int>, tailnum <chr>,
## #   origin <chr>, dest <chr>, air_time <dbl>, distance <dbl>, hour <dbl>,
## #   minute <dbl>, time_hour <dttm>, and abbreviated variable names
## #   ¹​sched_dep_time, ²​dep_delay, ³​arr_time, ⁴​sched_arr_time, ⁵​arr_delay
```

There's a useful shortcut when you're combining `|` and `==`: `%in%`.
It keeps rows where the variable equals one of the values on the right:


```r
# A shorter way to select flights that departed in January or February
flights |> 
  filter(month %in% c(1, 2))
```

```
## # A tibble: 51,955 × 19
##     year month   day dep_time sched_de…¹ dep_d…² arr_t…³ sched…⁴ arr_d…⁵ carrier
##    <int> <int> <int>    <int>      <int>   <dbl>   <int>   <int>   <dbl> <chr>  
##  1  2013     1     1      517        515       2     830     819      11 UA     
##  2  2013     1     1      533        529       4     850     830      20 UA     
##  3  2013     1     1      542        540       2     923     850      33 AA     
##  4  2013     1     1      544        545      -1    1004    1022     -18 B6     
##  5  2013     1     1      554        600      -6     812     837     -25 DL     
##  6  2013     1     1      554        558      -4     740     728      12 UA     
##  7  2013     1     1      555        600      -5     913     854      19 B6     
##  8  2013     1     1      557        600      -3     709     723     -14 EV     
##  9  2013     1     1      557        600      -3     838     846      -8 B6     
## 10  2013     1     1      558        600      -2     753     745       8 AA     
## # … with 51,945 more rows, 9 more variables: flight <int>, tailnum <chr>,
## #   origin <chr>, dest <chr>, air_time <dbl>, distance <dbl>, hour <dbl>,
## #   minute <dbl>, time_hour <dttm>, and abbreviated variable names
## #   ¹​sched_dep_time, ²​dep_delay, ³​arr_time, ⁴​sched_arr_time, ⁵​arr_delay
```
…
`arrange()` changes the order of the rows based on the value of the columns.
It takes a data frame and a set of column names (or more complicated expressions) to order by.
If you provide more than one column name, each additional column will be used to break ties in the values of preceding columns.
For example, the following code sorts by the departure time, which is spread over four columns.
We get the earliest years first, then within a year the earliest months, etc.


```r
flights |> 
  arrange(year, month, day, dep_time)
```

```
## # A tibble: 336,776 × 19
##     year month   day dep_time sched_de…¹ dep_d…² arr_t…³ sched…⁴ arr_d…⁵ carrier
##    <int> <int> <int>    <int>      <int>   <dbl>   <int>   <int>   <dbl> <chr>  
##  1  2013     1     1      517        515       2     830     819      11 UA     
##  2  2013     1     1      533        529       4     850     830      20 UA     
##  3  2013     1     1      542        540       2     923     850      33 AA     
##  4  2013     1     1      544        545      -1    1004    1022     -18 B6     
##  5  2013     1     1      554        600      -6     812     837     -25 DL     
##  6  2013     1     1      554        558      -4     740     728      12 UA     
##  7  2013     1     1      555        600      -5     913     854      19 B6     
##  8  2013     1     1      557        600      -3     709     723     -14 EV     
##  9  2013     1     1      557        600      -3     838     846      -8 B6     
## 10  2013     1     1      558        600      -2     753     745       8 AA     
## # … with 336,766 more rows, 9 more variables: flight <int>, tailnum <chr>,
## #   origin <chr>, dest <chr>, air_time <dbl>, distance <dbl>, hour <dbl>,
## #   minute <dbl>, time_hour <dttm>, and abbreviated variable names
## #   ¹​sched_dep_time, ²​dep_delay, ³​arr_time, ⁴​sched_arr_time, ⁵​arr_delay
```

You can use `desc()` on a column inside of `arrange()` to re-order the data frame based on that column in descending (big-to-small) order.
For example, this code orders flights from most to least delayed:


```r
flights |> 
  arrange(desc(dep_delay))
```

```
## # A tibble: 336,776 × 19
##     year month   day dep_time sched_de…¹ dep_d…² arr_t…³ sched…⁴ arr_d…⁵ carrier
##    <int> <int> <int>    <int>      <int>   <dbl>   <int>   <int>   <dbl> <chr>  
##  1  2013     1     9      641        900    1301    1242    1530    1272 HA     
##  2  2013     6    15     1432       1935    1137    1607    2120    1127 MQ     
##  3  2013     1    10     1121       1635    1126    1239    1810    1109 MQ     
##  4  2013     9    20     1139       1845    1014    1457    2210    1007 AA     
##  5  2013     7    22      845       1600    1005    1044    1815     989 MQ     
##  6  2013     4    10     1100       1900     960    1342    2211     931 DL     
##  7  2013     3    17     2321        810     911     135    1020     915 DL     
##  8  2013     6    27      959       1900     899    1236    2226     850 DL     
##  9  2013     7    22     2257        759     898     121    1026     895 DL     
## 10  2013    12     5      756       1700     896    1058    2020     878 AA     
## # … with 336,766 more rows, 9 more variables: flight <int>, tailnum <chr>,
## #   origin <chr>, dest <chr>, air_time <dbl>, distance <dbl>, hour <dbl>,
## #   minute <dbl>, time_hour <dttm>, and abbreviated variable names
## #   ¹​sched_dep_time, ²​dep_delay, ³​arr_time, ⁴​sched_arr_time, ⁵​arr_delay
```
…
### 4.2.4 `distinct()`

`distinct()` finds all the unique rows in a dataset, so in a technical sense, it primarily operates on the rows.
Most of the time, however, you'll want the distinct combination of some variables, so you can also optionally supply column names:


```r
# Remove duplicate rows, if any
flights |> 
  distinct()
```

```
## # A tibble: 336,776 × 19
##     year month   day dep_time sched_de…¹ dep_d…² arr_t…³ sched…⁴ arr_d…⁵ carrier
##    <int> <int> <int>    <int>      <int>   <dbl>   <int>   <int>   <dbl> <chr>  
##  1  2013     1     1      517        515       2     830     819      11 UA     
##  2  2013     1     1      533        529       4     850     830      20 UA     
##  3  2013     1     1      542        540       2     923     850      33 AA     
##  4  2013     1     1      544        545      -1    1004    1022     -18 B6     
##  5  2013     1     1      554        600      -6     812     837     -25 DL     
##  6  2013     1     1      554        558      -4     740     728      12 UA     
##  7  2013     1     1      555        600      -5     913     854      19 B6     
##  8  2013     1     1      557        600      -3     709     723     -14 EV     
##  9  2013     1     1      557        600      -3     838     846      -8 B6     
## 10  2013     1     1      558        600      -2     753     745       8 AA     
## # … with 336,766 more rows, 9 more variables: flight <int>, tailnum <chr>,
## #   origin <chr>, dest <chr>, air_time <dbl>, distance <dbl>, hour <dbl>,
## #   minute <dbl>, time_hour <dttm>, and abbreviated variable names
## #   ¹​sched_dep_time, ²​dep_delay, ³​arr_time, ⁴​sched_arr_time, ⁵​arr_delay
```

```r
# Find all unique origin and destination pairs
flights |> 
  distinct(origin, dest)
```

```
## # A tibble: 224 × 2
##    origin dest 
##    <chr>  <chr>
##  1 EWR    IAH  
##  2 LGA    IAH  
##  3 JFK    MIA  
##  4 JFK    BQN  
##  5 LGA    ATL  
##  6 EWR    ORD  
##  7 EWR    FLL  
##  8 LGA    IAD  
##  9 JFK    MCO  
## 10 LGA    ORD  
## # … with 214 more rows
```

Alternatively, if you want to the keep other columns when filtering for unique rows, you can use the `.keep_all = TRUE` option.


```r
flights |> 
  distinct(origin, dest, .keep_all = TRUE)
```

```
## # A tibble: 224 × 19
##     year month   day dep_time sched_de…¹ dep_d…² arr_t…³ sched…⁴ arr_d…⁵ carrier
##    <int> <int> <int>    <int>      <int>   <dbl>   <int>   <int>   <dbl> <chr>  
##  1  2013     1     1      517        515       2     830     819      11 UA     
##  2  2013     1     1      533        529       4     850     830      20 UA     
##  3  2013     1     1      542        540       2     923     850      33 AA     
##  4  2013     1     1      544        545      -1    1004    1022     -18 B6     
##  5  2013     1     1      554        600      -6     812     837     -25 DL     
##  6  2013     1     1      554        558      -4     740     728      12 UA     
##  7  2013     1     1      555        600      -5     913     854      19 B6     
##  8  2013     1     1      557        600      -3     709     723     -14 EV     
##  9  2013     1     1      557        600      -3     838     846      -8 B6     
## 10  2013     1     1      558        600      -2     753     745       8 AA     
## # … with 214 more rows, 9 more variables: flight <int>, tailnum <chr>,
## #   origin <chr>, dest <chr>, air_time <dbl>, distance <dbl>, hour <dbl>,
## #   minute <dbl>, time_hour <dttm>, and abbreviated variable names
## #   ¹​sched_dep_time, ²​dep_delay, ³​arr_time, ⁴​sched_arr_time, ⁵​arr_delay
```

It's not a coincidence that all of these distinct flights are on January 1: `distinct()` will find the first occurrence of a unique row in the dataset and discard the rest.

If you want to find the number of occurrences instead, you're better off swapping `distinct()` for `count()`, and with the `sort = TRUE` argument you can arrange them in descending order of number of occurrences.
You'll learn more about count in @sec-counts.


```r
flights |>
  count(origin, dest, sort = TRUE)
```

```
## # A tibble: 224 × 3
##    origin dest      n
##    <chr>  <chr> <int>
##  1 JFK    LAX   11262
##  2 LGA    ATL   10263
##  3 LGA    ORD    8857
##  4 JFK    SFO    8204
##  5 LGA    CLT    6168
##  6 EWR    ORD    6100
##  7 JFK    BOS    5898
##  8 LGA    MIA    5781
##  9 JFK    MCO    5464
## 10 EWR    BOS    5327
## # … with 214 more rows
```

### 4.2.5 Exercises

1.  In a singe pipeline, find all flights that meet all of the following conditions:

    -   Had an arrival delay of two or more hours

```r
flights |> 
  filter(arr_delay >= 120)
```

```
## # A tibble: 10,200 × 19
##     year month   day dep_time sched_de…¹ dep_d…² arr_t…³ sched…⁴ arr_d…⁵ carrier
##    <int> <int> <int>    <int>      <int>   <dbl>   <int>   <int>   <dbl> <chr>  
##  1  2013     1     1      811        630     101    1047     830     137 MQ     
##  2  2013     1     1      848       1835     853    1001    1950     851 MQ     
##  3  2013     1     1      957        733     144    1056     853     123 UA     
##  4  2013     1     1     1114        900     134    1447    1222     145 UA     
##  5  2013     1     1     1505       1310     115    1638    1431     127 EV     
##  6  2013     1     1     1525       1340     105    1831    1626     125 B6     
##  7  2013     1     1     1549       1445      64    1912    1656     136 EV     
##  8  2013     1     1     1558       1359     119    1718    1515     123 EV     
##  9  2013     1     1     1732       1630      62    2028    1825     123 EV     
## 10  2013     1     1     1803       1620     103    2008    1750     138 MQ     
## # … with 10,190 more rows, 9 more variables: flight <int>, tailnum <chr>,
## #   origin <chr>, dest <chr>, air_time <dbl>, distance <dbl>, hour <dbl>,
## #   minute <dbl>, time_hour <dttm>, and abbreviated variable names
## #   ¹​sched_dep_time, ²​dep_delay, ³​arr_time, ⁴​sched_arr_time, ⁵​arr_delay
```

    -   Flew to Houston (`IAH` or `HOU`)

```r
flights |> 
  filter(arr_delay >= 120) |> 
  filter(dest %in% c("IAH","HOU"))
```

```
## # A tibble: 220 × 19
##     year month   day dep_time sched_de…¹ dep_d…² arr_t…³ sched…⁴ arr_d…⁵ carrier
##    <int> <int> <int>    <int>      <int>   <dbl>   <int>   <int>   <dbl> <chr>  
##  1  2013     1     1     1114        900     134    1447    1222     145 UA     
##  2  2013     1    10     2137       1630     307      17    1925     292 UA     
##  3  2013     1    15     1603       1446      77    1957    1757     120 UA     
##  4  2013     1    16     1239       1043     116    1558    1340     138 UA     
##  5  2013     1    20     2136       1700     276      27    2011     256 UA     
##  6  2013     1    21     1708       1446     142    2032    1757     155 UA     
##  7  2013     1    25     1409       1155     134    1710    1459     131 B6     
##  8  2013     1    30     2312       2040     152     227    2345     162 B6     
##  9  2013     1    31     1837       1635     122    2241    1945     176 WN     
## 10  2013     1    31     2123       1856     147      49    2204     165 UA     
## # … with 210 more rows, 9 more variables: flight <int>, tailnum <chr>,
## #   origin <chr>, dest <chr>, air_time <dbl>, distance <dbl>, hour <dbl>,
## #   minute <dbl>, time_hour <dttm>, and abbreviated variable names
## #   ¹​sched_dep_time, ²​dep_delay, ³​arr_time, ⁴​sched_arr_time, ⁵​arr_delay
```
…
