…
tidyr provides two functions for pivoting data: `pivot_longer()` and `pivot_wider()`.
We'll first start with `pivot_longer()` because it's the most common case.
Let's dive into some examples.

### Data in column names {#sec-billboard}

The `billboard` dataset records the billboard rank of songs in the year 2000:


```r
billboard
```

```
## # A tibble: 317 × 79
##    artist track date.ent…¹   wk1   wk2   wk3   wk4   wk5   wk6   wk7   wk8   wk9
##    <chr>  <chr> <date>     <dbl> <dbl> <dbl> <dbl> <dbl> <dbl> <dbl> <dbl> <dbl>
##  1 2 Pac  Baby… 2000-02-26    87    82    72    77    87    94    99    NA    NA
##  2 2Ge+h… The … 2000-09-02    91    87    92    NA    NA    NA    NA    NA    NA
##  3 3 Doo… Kryp… 2000-04-08    81    70    68    67    66    57    54    53    51
##  4 3 Doo… Loser 2000-10-21    76    76    72    69    67    65    55    59    62
##  5 504 B… Wobb… 2000-04-15    57    34    25    17    17    31    36    49    53
##  6 98^0   Give… 2000-08-19    51    39    34    26    26    19     2     2     3
##  7 A*Tee… Danc… 2000-07-08    97    97    96    95   100    NA    NA    NA    NA
##  8 Aaliy… I Do… 2000-01-29    84    62    51    41    38    35    35    38    38
##  9 Aaliy… Try … 2000-03-18    59    53    38    28    21    18    16    14    12
## 10 Adams… Open… 2000-08-26    76    76    74    69    68    67    61    58    57
## # … with 307 more rows, 67 more variables: wk10 <dbl>, wk11 <dbl>, wk12 <dbl>,
## #   wk13 <dbl>, wk14 <dbl>, wk15 <dbl>, wk16 <dbl>, wk17 <dbl>, wk18 <dbl>,
## #   wk19 <dbl>, wk20 <dbl>, wk21 <dbl>, wk22 <dbl>, wk23 <dbl>, wk24 <dbl>,
## #   wk25 <dbl>, wk26 <dbl>, wk27 <dbl>, wk28 <dbl>, wk29 <dbl>, wk30 <dbl>,
## #   wk31 <dbl>, wk32 <dbl>, wk33 <dbl>, wk34 <dbl>, wk35 <dbl>, wk36 <dbl>,
## #   wk37 <dbl>, wk38 <dbl>, wk39 <dbl>, wk40 <dbl>, wk41 <dbl>, wk42 <dbl>,
## #   wk43 <dbl>, wk44 <dbl>, wk45 <dbl>, wk46 <dbl>, wk47 <dbl>, wk48 <dbl>, …
```
…
To tidy this data, we'll use `pivot_longer()`:


```r
billboard |> 
  pivot_longer(
    cols = starts_with("wk"), 
    names_to = "week", 
    values_to = "rank"
  )
```

```
## # A tibble: 24,092 × 5
##    artist track                   date.entered week   rank
##    <chr>  <chr>                   <date>       <chr> <dbl>
##  1 2 Pac  Baby Don't Cry (Keep... 2000-02-26   wk1      87
##  2 2 Pac  Baby Don't Cry (Keep... 2000-02-26   wk2      82
##  3 2 Pac  Baby Don't Cry (Keep... 2000-02-26   wk3      72
##  4 2 Pac  Baby Don't Cry (Keep... 2000-02-26   wk4      77
##  5 2 Pac  Baby Don't Cry (Keep... 2000-02-26   wk5      87
##  6 2 Pac  Baby Don't Cry (Keep... 2000-02-26   wk6      94
##  7 2 Pac  Baby Don't Cry (Keep... 2000-02-26   wk7      99
##  8 2 Pac  Baby Don't Cry (Keep... 2000-02-26   wk8      NA
##  9 2 Pac  Baby Don't Cry (Keep... 2000-02-26   wk9      NA
## 10 2 Pac  Baby Don't Cry (Keep... 2000-02-26   wk10     NA
## # … with 24,082 more rows
```
…
[^data-tidy-2]: We'll come back to this idea in @sec-missing-values.


```r
billboard |> 
  pivot_longer(
    cols = starts_with("wk"), 
    names_to = "week", 
    values_to = "rank",
    values_drop_na = TRUE
  )
```

```
## # A tibble: 5,307 × 5
##    artist  track                   date.entered week   rank
##    <chr>   <chr>                   <date>       <chr> <dbl>
##  1 2 Pac   Baby Don't Cry (Keep... 2000-02-26   wk1      87
##  2 2 Pac   Baby Don't Cry (Keep... 2000-02-26   wk2      82
##  3 2 Pac   Baby Don't Cry (Keep... 2000-02-26   wk3      72
##  4 2 Pac   Baby Don't Cry (Keep... 2000-02-26   wk4      77
##  5 2 Pac   Baby Don't Cry (Keep... 2000-02-26   wk5      87
##  6 2 Pac   Baby Don't Cry (Keep... 2000-02-26   wk6      94
##  7 2 Pac   Baby Don't Cry (Keep... 2000-02-26   wk7      99
##  8 2Ge+her The Hardest Part Of ... 2000-09-02   wk1      91
##  9 2Ge+her The Hardest Part Of ... 2000-09-02   wk2      87
## 10 2Ge+her The Hardest Part Of ... 2000-09-02   wk3      92
## # … with 5,297 more rows
```
…
```
## # A tibble: 5,307 × 5
##    artist  track                   date.entered  week  rank
##    <chr>   <chr>                   <date>       <dbl> <dbl>
##  1 2 Pac   Baby Don't Cry (Keep... 2000-02-26       1    87
##  2 2 Pac   Baby Don't Cry (Keep... 2000-02-26       2    82
##  3 2 Pac   Baby Don't Cry (Keep... 2000-02-26       3    72
##  4 2 Pac   Baby Don't Cry (Keep... 2000-02-26       4    77
##  5 2 Pac   Baby Don't Cry (Keep... 2000-02-26       5    87
##  6 2 Pac   Baby Don't Cry (Keep... 2000-02-26       6    94
##  7 2 Pac   Baby Don't Cry (Keep... 2000-02-26       7    99
##  8 2Ge+her The Hardest Part Of ... 2000-09-02       1    91
##  9 2Ge+her The Hardest Part Of ... 2000-09-02       2    87
## 10 2Ge+her The Hardest Part Of ... 2000-09-02       3    92
## # … with 5,297 more rows
```
…
### Many variables in column names

A more challenging situation occurs when you have multiple pieces of information crammed into the column names, and you would like to store these in separate new variables.
For example, take the `who2` dataset, the source of `table1` and friends that you saw above:


```r
who2
```

```
## # A tibble: 7,240 × 58
##    country  year sp_m_…¹ sp_m_…² sp_m_…³ sp_m_…⁴ sp_m_…⁵ sp_m_…⁶ sp_m_65 sp_f_…⁷
##    <chr>   <dbl>   <dbl>   <dbl>   <dbl>   <dbl>   <dbl>   <dbl>   <dbl>   <dbl>
##  1 Afghan…  1980      NA      NA      NA      NA      NA      NA      NA      NA
##  2 Afghan…  1981      NA      NA      NA      NA      NA      NA      NA      NA
##  3 Afghan…  1982      NA      NA      NA      NA      NA      NA      NA      NA
##  4 Afghan…  1983      NA      NA      NA      NA      NA      NA      NA      NA
##  5 Afghan…  1984      NA      NA      NA      NA      NA      NA      NA      NA
##  6 Afghan…  1985      NA      NA      NA      NA      NA      NA      NA      NA
##  7 Afghan…  1986      NA      NA      NA      NA      NA      NA      NA      NA
##  8 Afghan…  1987      NA      NA      NA      NA      NA      NA      NA      NA
##  9 Afghan…  1988      NA      NA      NA      NA      NA      NA      NA      NA
## 10 Afghan…  1989      NA      NA      NA      NA      NA      NA      NA      NA
## # … with 7,230 more rows, 48 more variables: sp_f_1524 <dbl>, sp_f_2534 <dbl>,
## #   sp_f_3544 <dbl>, sp_f_4554 <dbl>, sp_f_5564 <dbl>, sp_f_65 <dbl>,
## #   sn_m_014 <dbl>, sn_m_1524 <dbl>, sn_m_2534 <dbl>, sn_m_3544 <dbl>,
## #   sn_m_4554 <dbl>, sn_m_5564 <dbl>, sn_m_65 <dbl>, sn_f_014 <dbl>,
## #   sn_f_1524 <dbl>, sn_f_2534 <dbl>, sn_f_3544 <dbl>, sn_f_4554 <dbl>,
## #   sn_f_5564 <dbl>, sn_f_65 <dbl>, ep_m_014 <dbl>, ep_m_1524 <dbl>,
## #   ep_m_2534 <dbl>, ep_m_3544 <dbl>, ep_m_4554 <dbl>, ep_m_5564 <dbl>, …
```
…
```r
who2 |> 
  pivot_longer(
    cols = !(country:year),
    names_to = c("diagnosis", "gender", "age"), 
    names_sep = "_",
    values_to = "count"
  )
```

```
## # A tibble: 405,440 × 6
##    country      year diagnosis gender age   count
##    <chr>       <dbl> <chr>     <chr>  <chr> <dbl>
##  1 Afghanistan  1980 sp        m      014      NA
##  2 Afghanistan  1980 sp        m      1524     NA
##  3 Afghanistan  1980 sp        m      2534     NA
##  4 Afghanistan  1980 sp        m      3544     NA
##  5 Afghanistan  1980 sp        m      4554     NA
##  6 Afghanistan  1980 sp        m      5564     NA
##  7 Afghanistan  1980 sp        m      65       NA
##  8 Afghanistan  1980 sp        f      014      NA
##  9 Afghanistan  1980 sp        f      1524     NA
## 10 Afghanistan  1980 sp        f      2534     NA
## # … with 405,430 more rows
```
…
## Widening data

So far we've used `pivot_longer()` to solve the common class of problems where values have ended up in column names.
Next we'll pivot (HA HA) to `pivot_wider()`, which which makes datasets **wider** by increasing columns and reducing rows and helps when one observation is spread across multiple rows.
This seems to arise less commonly in the wild, but it does seem to crop up a lot when dealing with governmental data.

We'll start by looking at `cms_patient_experience`, a dataset from the Centers of Medicare and Medicaid services that collects data about patient experiences:


```r
cms_patient_experience
```

```
## # A tibble: 500 × 5
##    org_pac_id org_nm                               measure_cd   measur…¹ prf_r…²
##    <chr>      <chr>                                <chr>        <chr>      <dbl>
##  1 0446157747 USC CARE MEDICAL GROUP INC           CAHPS_GRP_1  CAHPS f…      63
##  2 0446157747 USC CARE MEDICAL GROUP INC           CAHPS_GRP_2  CAHPS f…      87
##  3 0446157747 USC CARE MEDICAL GROUP INC           CAHPS_GRP_3  CAHPS f…      86
##  4 0446157747 USC CARE MEDICAL GROUP INC           CAHPS_GRP_5  CAHPS f…      57
##  5 0446157747 USC CARE MEDICAL GROUP INC           CAHPS_GRP_8  CAHPS f…      85
##  6 0446157747 USC CARE MEDICAL GROUP INC           CAHPS_GRP_12 CAHPS f…      24
##  7 0446162697 ASSOCIATION OF UNIVERSITY PHYSICIANS CAHPS_GRP_1  CAHPS f…      59
##  8 0446162697 ASSOCIATION OF UNIVERSITY PHYSICIANS CAHPS_GRP_2  CAHPS f…      85
##  9 0446162697 ASSOCIATION OF UNIVERSITY PHYSICIANS CAHPS_GRP_3  CAHPS f…      83
## 10 0446162697 ASSOCIATION OF UNIVERSITY PHYSICIANS CAHPS_GRP_5  CAHPS f…      63
## # … with 490 more rows, and abbreviated variable names ¹​measure_title,
## #   ²​prf_rate
```
…
`pivot_wider()` has the opposite interface to `pivot_longer()`: instead of choosing new column names, we need to provide the existing columns that define the values (`values_from`) and the column name (`names_from)`:


```r
cms_patient_experience |> 
  pivot_wider(
    names_from = measure_cd,
    values_from = prf_rate
  )
```

```
## # A tibble: 500 × 9
##    org_pac_id org_nm     measu…¹ CAHPS…² CAHPS…³ CAHPS…⁴ CAHPS…⁵ CAHPS…⁶ CAHPS…⁷
##    <chr>      <chr>      <chr>     <dbl>   <dbl>   <dbl>   <dbl>   <dbl>   <dbl>
##  1 0446157747 USC CARE … CAHPS …      63      NA      NA      NA      NA      NA
##  2 0446157747 USC CARE … CAHPS …      NA      87      NA      NA      NA      NA
##  3 0446157747 USC CARE … CAHPS …      NA      NA      86      NA      NA      NA
##  4 0446157747 USC CARE … CAHPS …      NA      NA      NA      57      NA      NA
##  5 0446157747 USC CARE … CAHPS …      NA      NA      NA      NA      85      NA
##  6 0446157747 USC CARE … CAHPS …      NA      NA      NA      NA      NA      24
##  7 0446162697 ASSOCIATI… CAHPS …      59      NA      NA      NA      NA      NA
##  8 0446162697 ASSOCIATI… CAHPS …      NA      85      NA      NA      NA      NA
##  9 0446162697 ASSOCIATI… CAHPS …      NA      NA      83      NA      NA      NA
## 10 0446162697 ASSOCIATI… CAHPS …      NA      NA      NA      63      NA      NA
## # … with 490 more rows, and abbreviated variable names ¹​measure_title,
## #   ²​CAHPS_GRP_1, ³​CAHPS_GRP_2, ⁴​CAHPS_GRP_3, ⁵​CAHPS_GRP_5, ⁶​CAHPS_GRP_8,
## #   ⁷​CAHPS_GRP_12
```
The output doesn't look quite right; we still seem to have multiple rows for each organization.
That's because, we also need to tell `pivot_wider()` which column or columns have values that uniquely identify each row; in this case those are the variables starting with `"org"`:


```r
cms_patient_experience |> 
  pivot_wider(
    id_cols = starts_with("org"),
    names_from = measure_cd,
    values_from = prf_rate
  )
```

```
## # A tibble: 95 × 8
##    org_pac_id org_nm             CAHPS…¹ CAHPS…² CAHPS…³ CAHPS…⁴ CAHPS…⁵ CAHPS…⁶
##    <chr>      <chr>                <dbl>   <dbl>   <dbl>   <dbl>   <dbl>   <dbl>
##  1 0446157747 USC CARE MEDICAL …      63      87      86      57      85      24
##  2 0446162697 ASSOCIATION OF UN…      59      85      83      63      88      22
##  3 0547164295 BEAVER MEDICAL GR…      49      NA      75      44      73      12
##  4 0749333730 CAPE PHYSICIANS A…      67      84      85      65      82      24
##  5 0840104360 ALLIANCE PHYSICIA…      66      87      87      64      87      28
##  6 0840109864 REX HOSPITAL INC        73      87      84      67      91      30
##  7 0840513552 SCL HEALTH MEDICA…      58      83      76      58      78      26
##  8 0941545784 GRITMAN MEDICAL C…      46      86      81      54      NA      25
##  9 1052612785 COMMUNITY MEDICAL…      65      84      80      58      87      29
## 10 1254237779 OUR LADY OF LOURD…      61      NA      NA      65      NA      17
## # … with 85 more rows, and abbreviated variable names ¹​CAHPS_GRP_1,
## #   ²​CAHPS_GRP_2, ³​CAHPS_GRP_3, ⁴​CAHPS_GRP_5, ⁵​CAHPS_GRP_8, ⁶​CAHPS_GRP_12
```
…
